{
  "page": 1,
  "total_results": 10000,
  "total_pages": 500,
  "results": [
    {
      "popularity": 5339.267,
      "vote_count": 127,
      "video": false,
      "poster_path": "\/7D430eqZj8y3oVkLFfsWXGRcpEG.jpg",
      "id": 528085,
      "adult": false,
      "backdrop_path": "\/5UkzNSOK561c2QRy2Zr4AkADzLT.jpg",
      "original_language": "en",
      "original_title": "2067",
      "genre_ids": [
        878,
        53
      ],
      "title": "2067",
      "vote_average": 5.8,
      "overview": "A lowly utility worker is called to the future by a mysterious radio signal, he must leave his dying wife to embark on a journey that will force him to face his deepest fears in an attempt to change the fabric of reality and save humankind from its greatest environmental crisis yet.",
      "release_date": "2020-10-01"
    },
    {
      "popularity": 2828.024,
      "vote_count": 109,
      "video": false,
      "poster_path": "\/elZ6JCzSEvFOq4gNjNeZsnRFsvj.jpg",
      "id": 741067,
      "adult": false,
      "backdrop_path": "\/aO5ILS7qnqtFIprbJ40zla0jhpu.jpg",
      "original_language": "en",
      "original_title": "Welcome to Sudden Death",
      "genre_ids": [
        28,
        18,
        53
      ],
      "title": "Welcome to Sudden Death",
      "vote_average": 6.7,
      "overview": "Jesse Freeman is a former special forces officer and explosives expert now working a regular job as a security guard in a state-of-the-art basketball arena. Trouble erupts when a tech-savvy cadre of terrorists kidnap the team's owner and Jesse's daughter during opening night. Facing a ticking clock and impossible odds, it's up to Jesse to not only save them but also a full house of fans in this highly charged action thriller.",
      "release_date": "2020-09-29"
    },
    {
      "popularity": 2386.144,
      "vote_count": 2081,
      "video": false,
      "poster_path": "\/riYInlsq2kf1AWoGm80JQW5dLKp.jpg",
      "id": 497582,
      "adult": false,
      "backdrop_path": "\/kMe4TKMDNXTKptQPAdOF0oZHq3V.jpg",
      "original_language": "en",
      "original_title": "Enola Holmes",
      "genre_ids": [
        80,
        18,
        9648
      ],
      "title": "Enola Holmes",
      "vote_average": 7.6,
      "overview": "While searching for her missing mother, intrepid teen Enola Holmes uses her sleuthing skills to outsmart big brother Sherlock and help a runaway lord.",
      "release_date": "2020-09-23"
    },
    {
      "popularity": 1673.579,
      "vote_count": 2510,
      "video": false,
      "poster_path": "\/aKx1ARwG55zZ0GpRvU2WrGrCG9o.jpg",
      "id": 337401,
      "adult": false,
      "backdrop_path": "\/zzWGRw277MNoCs3zhyG3YmYQsXv.jpg",
      "original_language": "en",
      "original_title": "Mulan",
      "genre_ids": [
        28,
        12,
        18,
        14
      ],
      "title": "Mulan",
      "vote_average": 7.3,
      "overview": "When the Emperor of China issues a decree that one man per family must serve in the Imperial Chinese Army to defend the country from Huns, Hua Mulan, the eldest daughter of an honored warrior, steps in to take the place of her ailing father. She is spirited, determined and quick on her feet. Disguised as a man by the name of Hua Jun, she is tested every step of the way and must harness her innermost strength and embrace her true potential.",
      "release_date": "2020-09-04"
    },
    {
      "popularity": 1429.697,
      "vote_count": 141,
      "video": false,
      "poster_path": "\/ugZW8ocsrfgI95pnQ7wrmKDxIe.jpg",
      "id": 724989,
      "adult": false,
      "backdrop_path": "\/86L8wqGMDbwURPni2t7FQ0nDjsH.jpg",
      "original_language": "en",
      "original_title": "Hard Kill",
      "genre_ids": [
        28,
        53
      ],
      "title": "Hard Kill",
      "vote_average": 4.7,
      "overview": "The work of billionaire tech CEO Donovan Chalmers is so valuable that he hires mercenaries to protect it, and a terrorist group kidnaps his daughter just to get it.",
      "release_date": "2020-08-25"
    },
    {
      "popularity": 1405.744,
      "vote_count": 144,
      "video": false,
      "poster_path": "\/6CoRTJTmijhBLJTUNoVSUNxZMEI.jpg",
      "id": 694919,
      "adult": false,
      "backdrop_path": "\/pq0JSpwyT2URytdFG0euztQPAyR.jpg",
      "original_language": "en",
      "original_title": "Money Plane",
      "genre_ids": [
        28
      ],
      "title": "Money Plane",
      "vote_average": 6.1,
      "overview": "A professional thief with $40 million in debt and his family's life on the line must commit one final heist - rob a futuristic airborne casino filled with the world's most dangerous criminals.",
      "release_date": "2020-09-29"
    },
    {
      "popularity": 1249.106,
      "vote_count": 6,
      "video": false,
      "poster_path": "\/z0r3YjyJSLqf6Hz0rbBAnEhNXQ7.jpg",
      "id": 697064,
      "adult": false,
      "backdrop_path": "\/7WKIOXJa2JjHygE8Yta3uaCv6GC.jpg",
      "original_language": "en",
      "original_title": "Beckman",
      "genre_ids": [
        28
      ],
      "title": "Beckman",
      "vote_average": 5.4,
      "overview": "A contract killer, becomes the reverend of a LA church, until a cult leader and his minions kidnap his daughter. Blinded by vengeance, he cuts a bloody path across the city. The only thing that can stop him is his newfound faith.",
      "release_date": "2020-09-10"
    },
    {
      "popularity": 995.324,
      "vote_count": 617,
      "video": false,
      "poster_path": "\/sy6DvAu72kjoseZEjocnm2ZZ09i.jpg",
      "id": 581392,
      "adult": false,
      "backdrop_path": "\/gEjNlhZhyHeto6Fy5wWy5Uk3A9D.jpg",
      "original_language": "ko",
      "original_title": "반도",
      "genre_ids": [
        28,
        27,
        53
      ],
      "title": "Peninsula",
      "vote_average": 7.1,
      "overview": "A soldier and his team battle hordes of post-apocalyptic zombies in the wastelands of the Korean Peninsula.",
      "release_date": "2020-07-15"
    },
    {
      "popularity": 1180.074,
      "vote_count": 307,
      "video": false,
      "poster_path": "\/uOw5JD8IlD546feZ6oxbIjvN66P.jpg",
      "id": 718444,
      "adult": false,
      "backdrop_path": "\/x4UkhIQuHIJyeeOTdcbZ3t3gBSa.jpg",
      "original_language": "en",
      "original_title": "Rogue",
      "genre_ids": [
        28
      ],
      "title": "Rogue",
      "vote_average": 5.9,
      "overview": "Battle-hardened O’Hara leads a lively mercenary team of soldiers on a daring mission: rescue hostages from their captors in remote Africa. But as the mission goes awry and the team is stranded, O’Hara’s squad must face a bloody, brutal encounter with a gang of rebels.",
      "release_date": "2020-08-20"
    },
    {
      "popularity": 1131.984,
      "vote_count": 137,
      "video": false,
      "poster_path": "\/9Rj8l6gElLpRL7Kj17iZhrT5Zuw.jpg",
      "id": 734309,
      "adult": false,
      "backdrop_path": "\/7fvdg211A2L0mHddvzyArRuRalp.jpg",
      "original_language": "en",
      "original_title": "Santana",
      "genre_ids": [
        28
      ],
      "title": "Santana",
      "vote_average": 5.6,
      "overview": "Two brothers — one a narcotics agent and the other a general — finally discover the identity of the drug lord who murdered their parents decades ago. They may kill each other before capturing the bad guys.",
      "release_date": "2020-08-28"
    },
    {
      "popularity": 1088.64,
      "vote_count": 81,
      "video": false,
      "poster_path": "\/xqvX5A24dbIWaeYsMTxxKX5qOfz.jpg",
      "id": 660982,
      "adult": false,
      "backdrop_path": "\/75ooojtgiKYm5LcCczbCexioZze.jpg",
      "original_language": "en",
      "original_title": "American Pie Presents: Girls' Rules",
      "genre_ids": [
        35
      ],
      "title": "American Pie Presents: Girls Rules",
      "vote_average": 6.6,
      "overview": "It's Senior year at East Great Falls. Annie, Kayla, Michelle, and Stephanie decide to harness their girl power and band together to get what they want their last year of high school.",
      "release_date": "2020-10-06"
    },
    {
      "popularity": 1106.845,
      "vote_count": 490,
      "video": false,
      "poster_path": "\/qzA87Wf4jo1h8JMk9GilyIYvwsA.jpg",
      "id": 539885,
      "adult": false,
      "backdrop_path": "\/54yOImQgj8i85u9hxxnaIQBRUuo.jpg",
      "original_language": "en",
      "original_title": "Ava",
      "genre_ids": [
        28,
        80,
        18,
        53
      ],
      "title": "Ava",
      "vote_average": 5.9,
      "overview": "A black ops assassin is forced to fight for her own survival after a job goes dangerously wrong.",
      "release_date": "2020-07-02"
    },
    {
      "popularity": 834.795,
      "vote_count": 36,
      "video": false,
      "poster_path": "\/5aL71e0XBgHZ6zdWcWeuEhwD2Gw.jpg",
      "id": 721656,
      "adult": false,
      "backdrop_path": "\/5gTQmnGYKxDfmUWJ9GUWqrszRxN.jpg",
      "original_language": "en",
      "original_title": "Happy Halloween Scooby-Doo!",
      "genre_ids": [
        16,
        35,
        80,
        9648,
        10751
      ],
      "title": "Happy Halloween Scooby-Doo!",
      "vote_average": 7.7,
      "overview": "Scooby-Doo and the gang team up with their pals, Bill Nye The Science Guy and Elvira Mistress of the Dark, to solve this mystery of gigantic proportions and save Crystal Cove!",
      "release_date": "2020-10-06"
    },
    {
      "popularity": 757.391,
      "vote_count": 1443,
      "video": false,
      "poster_path": "\/TnOeov4w0sTtV2gqICqIxVi74V.jpg",
      "id": 605116,
      "adult": false,
      "backdrop_path": "\/qVygtf2vU15L2yKS4Ke44U4oMdD.jpg",
      "original_language": "en",
      "original_title": "Project Power",
      "genre_ids": [
        28,
        80,
        878
      ],
      "title": "Project Power",
      "vote_average": 6.6,
      "overview": "An ex-soldier, a teen and a cop collide in New Orleans as they hunt for the source behind a dangerous new pill that grants users temporary superpowers.",
      "release_date": "2020-08-14"
    },
    {
      "popularity": 922.125,
      "vote_count": 217,
      "video": false,
      "poster_path": "\/vJHSParlylICnI7DuuI54nfTPRR.jpg",
      "id": 438396,
      "adult": false,
      "backdrop_path": "\/qGZe9qTuydxyJYQ60XDtEckzLR8.jpg",
      "original_language": "es",
      "original_title": "Orígenes secretos",
      "genre_ids": [
        18,
        53
      ],
      "title": "Unknown Origins",
      "vote_average": 6.2,
      "overview": "In Madrid, Spain, a mysterious serial killer ruthlessly murders his victims by recreating the first appearance of several comic book superheroes. Cosme, a veteran police inspector who is about to retire, works on the case along with the tormented inspector David Valentín and his own son Jorge Elías, a nerdy young man who owns a comic book store.",
      "release_date": "2020-08-28"
    },
    {
      "popularity": 865.325,
      "vote_count": 877,
      "video": false,
      "poster_path": "\/tI8ocADh22GtQFV28vGHaBZVb0U.jpg",
      "id": 475430,
      "adult": false,
      "backdrop_path": "\/o0F8xAt8YuEm5mEZviX5pEFC12y.jpg",
      "original_language": "en",
      "original_title": "Artemis Fowl",
      "genre_ids": [
        28,
        12,
        14,
        878,
        10751
      ],
      "title": "Artemis Fowl",
      "vote_average": 5.8,
      "overview": "Artemis Fowl is a 12-year-old genius and descendant of a long line of criminal masterminds. He soon finds himself in an epic battle against a race of powerful underground fairies who may be behind his father's disappearance.",
      "release_date": "2020-06-12"
    },
    {
      "popularity": 804.737,
      "vote_count": 139,
      "video": false,
      "poster_path": "\/eDnHgozW8vfOaLHzfpHluf1GZCW.jpg",
      "id": 606234,
      "adult": false,
      "backdrop_path": "\/u9YEh2xVAPVTKoaMNlB5tH6pXkm.jpg",
      "original_language": "en",
      "original_title": "Archive",
      "genre_ids": [
        18,
        878,
        53
      ],
      "title": "Archive",
      "vote_average": 5.6,
      "overview": "2038: George Almore is working on a true human-equivalent AI, and his latest prototype is almost ready. This sensitive phase is also the riskiest as he has a goal that must be hidden at all costs—being reunited with his dead wife.",
      "release_date": "2020-08-13"
    },
    {
      "popularity": 788.216,
      "vote_count": 111,
      "video": false,
      "poster_path": "\/i4kPwXPlM1iy8Jf3S1uuLuwqQAV.jpg",
      "id": 721452,
      "adult": false,
      "backdrop_path": "\/riDrpqQtZpXGeiJdlmfcwwPH7nN.jpg",
      "original_language": "en",
      "original_title": "One Night in Bangkok",
      "genre_ids": [
        28,
        53
      ],
      "title": "One Night in Bangkok",
      "vote_average": 7.2,
      "overview": "A hit man named Kai flies into Bangkok, gets a gun, and orders a cab. He offers a professional female driver big money to be his all-night driver. But when she realizes Kai is committing brutal murders at each stop, it's too late to walk away. Meanwhile, an offbeat police detective races to decode the string of slayings before more blood is spilled.",
      "release_date": "2020-08-25"
    },
    {
      "popularity": 769.347,
      "vote_count": 162,
      "video": false,
      "poster_path": "\/xOmGTJtBgRVSAF4S5dZEUqHqyy5.jpg",
      "id": 621870,
      "adult": false,
      "backdrop_path": "\/oSSEcPDfwgZSv2i01Oqxdb9t8fI.jpg",
      "original_language": "en",
      "original_title": "Secret Society of Second Born Royals",
      "genre_ids": [
        28,
        12,
        35,
        14
      ],
      "title": "Secret Society of Second Born Royals",
      "vote_average": 6.9,
      "overview": "Sam is a teenage royal rebel, second in line to the throne of the kingdom of Illyria. Just as her disinterest in the royal way of life is at an all-time high, she discovers she has super-human abilities and is invited to join a secret society of similar extraordinary second-born royals charged with keeping the world safe.",
      "release_date": "2020-09-25"
    },
    {
      "popularity": 667.784,
      "vote_count": 437,
      "video": false,
      "poster_path": "\/tFwmK42ze3gCUkGfk18vXxKPfL8.jpg",
      "id": 617505,
      "adult": false,
      "backdrop_path": "\/aOeshAxAhiDVIiHsXVFmF6bgclh.jpg",
      "original_language": "en",
      "original_title": "Hubie Halloween",
      "genre_ids": [
        35,
        27
      ],
      "title": "Hubie Halloween",
      "vote_average": 6.4,
      "overview": "Hubie Dubois who, despite his devotion to his hometown of Salem, Massachusetts (and its legendary Halloween celebration), is a figure of mockery for kids and adults alike. But this year, something really is going bump in the night, and it’s up to Hubie to save Halloween.",
      "release_date": "2020-10-07"
    }
  ]
}